TAG,PACKAGE,PURPOSE
,mlocate,"locate command."
,sxiv,"is a minimalist image viewer."
,calcurse,"is a lightweight terminal-based calendar."
,patch,"is used to patch files"
,cmake,"build c/c++ applications"
,fontconfig-devel,"st terminal depedency"
,gcc,"c and c++ compiler"
,posix_cc,"c99 compilation"
,libx11-devel,"st terminal depedency"
,xorg-x11-devel,"required for compilation"
,ncurses-devel,"required for st"
,vifm,"is an extensive terminal file manager that everyone likes."
,vim,"a text editor"
,gvim,"a graphical version of vim, installed for vim clipboard support"
,zip,"a compression tool"
,yadm,"A git like dot file manager"
,compton,"Window composition"
,nitrogen,"Background management"
,polybar,"Status bar // addrepo https://download.opensuse.org/repositories/X11:Utilities/openSUSE_Tumbleweed/X11:Utilities.repo"
,zsh,"Bash Shell alternative"
,fontawesome-fonts,"Font for icons"
,nodejs-common,"For npm package manager"
npm,tldr,"Like man but more concise and with examples"
,xcb,"Used by bspwm"
,rofi, "Application launcher and window switch (dmenu replacement)"
,syncthing, "Synchronize files across multiple devices"
,fcitx,input framework for non-Latin characters(like Japanese)
,fcitx-mozc,Japanese IME(Input Method Engine)
,xorg-server,"is the graphical server."
,xorg-xwininfo,"allows querying information about windows."
,xorg-xinit,"starts the graphical server."
,sxhkd,"binds key."
,ttf-inconsolata,"is a monospace font."
,ttf-linux-libertine,"provides sans and serif fonts."
,tree,"lists directory contents like trees. Used by vifm."
,python3-gobject,"Depedency for arandr."
,python3-gobject-Gdk,"Depedency for arandr."
,typelib-1_0-Gtk-3_0,"Depedency for arandr."
,libgtk-3-0,"Depedency for arandr."
,cairo-devel,"Depedency for arandr."
,pkg-confi,"Depedency for arandr."
,python3-d,"Depedency for arandr."
,gcc,"Depedency for arandr."
,gobject-introspection-devel,"Depedencies for arandr."
pip3,pycairo,"Depedencies for arandr."
pip3,PyGObject,"Depedencies for arandr."
,arandr,"is a UI for screen adjustment."
,bc,"is used for a dropdown calculator."
,xcompmgr,"is for transparency and removing screen-tearing."
,xorg-xprop,"is a tool for detecting window properties."
,dosfstools,"allows your computer to access dos-like filesystems."
,libnotify,"allows desktop notifications."
,dunst,"is a suckless notification system."
,exfat-utils,"allows management of FAT drives."
,ntfs-3g,"allows accessing NTFS partitions."
,ffmpeg,"can record and splice video and audio on the command line."
,gnome-keyring,"serves as the system keyring."
,seahorse,"a gui for gnome-keyring"
,mpd,"is a lightweight music daemon."
,mpc,"is a terminal interface for mpd."
,mpv,"is a video player."
,ncmpcpp,"a ncurses interface for music with multiple formats and a powerful tag editor."
,NetworkManager,"does exactly what it sounds like."
,NetworkManager-applet,"GUI for network manager."
,newsboat,"is a terminal RSS client."
,firefox,"the main web browser."
,chromium,"the for websites optimized for it."
A,sc-im,"is an Excel-like terminal spreadsheet manager."
,htop,"provides system usage information and displays processes."
,maim,"can take quick screenshots at your request."
,tmux,"is a terminal multiplexer and the dropdown window."
,unrar,"extracts rar's."
,unzip,"unzips zips."
,atool,"manages and gives information about archives."
A,urlscan,"parses URLs in the terminal allowing keyboard-based selection."
,w3m,"is a terminal browser which can also view images."
,xclip,"allows for copying and pasting from the command line."
,xdotool,"Fake keyboard/mouse input."
,xorg-xdpyinfo,"aids with resolution determination and screen recording."
,youtube-dl,"can download any YouTube video (or playlist or channel) when given the link."
,zathura,"is a document viewer vim-like bindings."
,zathura-bash-completion,"Offers bash completion to Zathura."
,zathura-zsh-completion,"Offers zsh completion to Zathura."
,zathura-plugin-djvu,"gives zathura the ability to read .djvu files."
,zathura-pdf-poppler,"allows pdf compatibility in zathura."
A,python-ueberzug,"generates image previews in vifm and other terminal programs."
,poppler,"manipulates .pdfs and gives .pdf previews and other .pdf functions. ???"
,mediainfo,"shows audio and video information and is used by vifm as well."
,fzf,"is a fuzzy finder tool."
,syntax-highlighting,"can highlight code output."
,xorg-xbacklight,"enables changing screen brightness levels."
G,https://gitlab.com/richardschembri/suckless.git,"a batch suckless utilies(dmenu, dwm, st)."
G,https://gitlab.com/wavexx/acpilight.git,"A better version of xbacklight"
pip,tuir,"Terminal UI for Reddit"
G,https://github.com/baskerville/xdo.git,"devour dependency"
G,https://github.com/salman-abedin/devour.git,"Swallow terminal windows before launching an external program and unhides it after quitting"
,imlib2-devel, "used by xmenu"
G,https://github.com/phillbush/xmenu.git,"a menu utility for X"
,lxappearance,A tool used to set gtk themes
G,dragon,A tool to select files in terminal and make them draggable in a seprate window
,barrier,A crossplatfrom tool to share a keyboard and mouse amongst multiple computers
,bluez, "provides Bluetooth support for openSUSE"
,goxel, "is a Voxel editor"
,ripgrep, "File text search"
|anki| "Anki is a spaced repetition system (SRS)"
,translate-shell, command-line translator powered by Google Translate (default), Bing Translator, Yandex.Translate, and Apertium.
,texlive-xetex, XeLatext
,texlive-svg, SVG support for latex
,texlive-libertine, Libertine and Biolinum fonts
,texlive-zxjatype, Standard conforming typesetting of Japanese, for XeLaTeX
,texlive-zxjafont, Set up Japanese font families for XeLaTeX
,texlive-cjk-latex-extras, Additional CJK fonts
,omnisharp-server, CSharp language server
,darktable, A virtual Lighttable and Darkroom
,python38-neovim-remote, Neovim process control utility
