{
  "folder items": [
    {
      "name": "Terminal",
      "icon": "terminal",
      "command": "st -e tmux",
      "launch in terminal": false
    },
    {
      "name": "Launcher",
      "icon": "pico8",
      "command": "rofi",
      "launch in terminal": false
    },
    {
      "name": "Make Music",
      "icon": "musicsequencer",
      "command": "sunvox",
      "launch in terminal": false
    },
    {
      "name": "Write",
      "icon": "texteditor",
      "command": "leafpad",
      "launch in terminal": false
    },
    {
      "name": "Browse Files",
      "icon": "filebrowser",
      "command": "pcmanfm",
      "launch in terminal": false
    },
    {
      "name": "All",
      "icon": "default",
      "categories": [
        "All"
      ]
    },
    {
      "name": "Multimedia",
      "icon": "applications-multimedia",
      "categories": [
        "AudioVideo",
        "Audio",
        "Video"
      ]
    },
    {
      "name": "Development",
      "icon": "applications-development",
      "categories": [
        "Development"
      ]
    },
    {
      "name": "Education",
      "icon": "applications-accessories",
      "categories": [
        "Education"
      ]
    },
    {
      "name": "Games",
      "icon": "applications-games",
      "categories": [
        "Game"
      ]
    },
    {
      "name": "Graphics",
      "icon": "applications-graphics",
      "categories": [
        "Graphics"
      ]
    },
    {
      "name": "Internet",
      "icon": "applications-internet",
      "categories": [
        "Network"
      ]
    },
    {
      "name": "Office",
      "icon": "applications-office",
      "categories": [
        "Office"
      ]
    },
    {
      "name": "Science",
      "icon": "applications-science",
      "categories": [
        "Science"
      ]
    },
    {
      "name": "Settings",
      "icon": "configuration_section",
      "categories": [
        "Settings"
      ]
    },
    {
      "name": "System",
      "icon": "applications-system",
      "categories": [
        "System"
      ]
    },
    {
      "name": "Utility",
      "icon": "applications-utilities",
      "categories": [
        "Utility"
      ]
    },
    {
      "name": "Other",
      "icon": "applications-other",
      "categories": [
        "Other"
      ]
    },
    {
      "name": "Get Help",
      "icon": "help",
      "command": "surf /usr/share/pocketchip-localdoc/index.html",
      "launch in terminal": false
    }
  ]
}